top.vcd
$date
	Thu Dec  4 03:04:33 2025
$end
$version
	Icarus Verilog
$end
$timescale
	1ps
$end
$scope module cpu_tb $end
$var wire 4 ! debug_ram_out [3:0] $end
$var wire 1 " debug_cout $end
$var wire 4 # debug_alu_res [3:0] $end
$var reg 1 $ clk $end
$var reg 11 % instruction [10:0] $end
$var reg 1 & reset_n $end
$var integer 32 ' errors [31:0] $end
$scope module u_cpu $end
$var wire 1 $ clk $end
$var wire 4 ( debug_alu_res [3:0] $end
$var wire 1 " debug_cout $end
$var wire 4 ) debug_ram_out [3:0] $end
$var wire 11 * instruction [10:0] $end
$var wire 1 & reset_n $end
$var wire 4 + ram_wdata [3:0] $end
$var wire 1 , ram_rwn $end
$var wire 4 - ram_rdata [3:0] $end
$var wire 1 . ram_csn $end
$var wire 4 / ram_addr [3:0] $end
$var wire 4 0 alu_sel [3:0] $end
$var wire 4 1 alu_f [3:0] $end
$var wire 1 2 alu_cout $end
$var wire 4 3 alu_b [3:0] $end
$var wire 4 4 alu_a [3:0] $end
$scope module u_alu $end
$var wire 1 $ clk $end
$var wire 1 & reset_n $end
$var wire 4 5 xor_res [3:0] $end
$var wire 4 6 sum_out [3:0] $end
$var wire 1 7 s2 $end
$var wire 1 8 s1 $end
$var wire 1 9 s0 $end
$var wire 4 : next_f [3:0] $end
$var wire 1 ; next_cout $end
$var wire 1 < cout_arith $end
$var wire 1 = cin_in $end
$var wire 4 > b [3:0] $end
$var wire 4 ? alu_sel [3:0] $end
$var wire 4 @ a [3:0] $end
$var reg 4 A adder_b [3:0] $end
$var reg 1 2 cout $end
$var reg 4 B f [3:0] $end
$var reg 4 C logic_res [3:0] $end
$scope module u_adder $end
$var wire 4 D b [3:0] $end
$var wire 1 = cin $end
$var wire 4 E sum [3:0] $end
$var wire 1 < cout $end
$var wire 1 F c3 $end
$var wire 1 G c2 $end
$var wire 1 H c1 $end
$var wire 4 I a [3:0] $end
$scope module fa0 $end
$var wire 1 J a $end
$var wire 1 K b $end
$var wire 1 L c1 $end
$var wire 1 M c2 $end
$var wire 1 = cin $end
$var wire 1 H cout $end
$var wire 1 N sum $end
$var wire 1 O s_ab $end
$scope module u_xor_ab $end
$var wire 1 J a $end
$var wire 1 K b $end
$var wire 1 O c $end
$upscope $end
$scope module u_xor_sum $end
$var wire 1 O a $end
$var wire 1 = b $end
$var wire 1 N c $end
$upscope $end
$upscope $end
$scope module fa1 $end
$var wire 1 P a $end
$var wire 1 Q b $end
$var wire 1 R c1 $end
$var wire 1 S c2 $end
$var wire 1 H cin $end
$var wire 1 G cout $end
$var wire 1 T sum $end
$var wire 1 U s_ab $end
$scope module u_xor_ab $end
$var wire 1 P a $end
$var wire 1 Q b $end
$var wire 1 U c $end
$upscope $end
$scope module u_xor_sum $end
$var wire 1 U a $end
$var wire 1 H b $end
$var wire 1 T c $end
$upscope $end
$upscope $end
$scope module fa2 $end
$var wire 1 V a $end
$var wire 1 W b $end
$var wire 1 X c1 $end
$var wire 1 Y c2 $end
$var wire 1 G cin $end
$var wire 1 F cout $end
$var wire 1 Z sum $end
$var wire 1 [ s_ab $end
$scope module u_xor_ab $end
$var wire 1 V a $end
$var wire 1 W b $end
$var wire 1 [ c $end
$upscope $end
$scope module u_xor_sum $end
$var wire 1 [ a $end
$var wire 1 G b $end
$var wire 1 Z c $end
$upscope $end
$upscope $end
$scope module fa3 $end
$var wire 1 \ a $end
$var wire 1 ] b $end
$var wire 1 ^ c1 $end
$var wire 1 _ c2 $end
$var wire 1 F cin $end
$var wire 1 < cout $end
$var wire 1 ` sum $end
$var wire 1 a s_ab $end
$scope module u_xor_ab $end
$var wire 1 \ a $end
$var wire 1 ] b $end
$var wire 1 a c $end
$upscope $end
$scope module u_xor_sum $end
$var wire 1 a a $end
$var wire 1 F b $end
$var wire 1 ` c $end
$upscope $end
$upscope $end
$upscope $end
$scope module u_xor0 $end
$var wire 1 b a $end
$var wire 1 c b $end
$var wire 1 d c $end
$upscope $end
$scope module u_xor1 $end
$var wire 1 e a $end
$var wire 1 f b $end
$var wire 1 g c $end
$upscope $end
$scope module u_xor2 $end
$var wire 1 h a $end
$var wire 1 i b $end
$var wire 1 j c $end
$upscope $end
$scope module u_xor3 $end
$var wire 1 k a $end
$var wire 1 l b $end
$var wire 1 m c $end
$upscope $end
$upscope $end
$scope module u_decoder $end
$var wire 4 n alu_result [3:0] $end
$var wire 1 $ clk $end
$var wire 11 o instruction [10:0] $end
$var wire 1 & reset_n $end
$var wire 4 p ram_data_out [3:0] $end
$var wire 3 q opcode [2:0] $end
$var wire 4 r op2 [3:0] $end
$var wire 4 s op1 [3:0] $end
$var reg 4 t alu_a [3:0] $end
$var reg 4 u alu_b [3:0] $end
$var reg 4 v alu_sel [3:0] $end
$var reg 2 w current_state [1:0] $end
$var reg 2 x next_state [1:0] $end
$var reg 4 y ram_addr [3:0] $end
$var reg 1 . ram_csn $end
$var reg 4 z ram_data_in [3:0] $end
$var reg 1 , ram_rwn $end
$upscope $end
$scope module u_ram $end
$var wire 4 { addr [3:0] $end
$var wire 1 $ clk $end
$var wire 1 . csn $end
$var wire 4 | data_in [3:0] $end
$var wire 1 & rst_n $end
$var wire 1 , rwn $end
$var reg 4 } data_out [3:0] $end
$var integer 32 ~ i [31:0] $end
$upscope $end
$upscope $end
$scope task run_and_check $end
$var reg 4 !" actual_ram_val [3:0] $end
$var reg 280 "" desc [280:1] $end
$var reg 4 #" dest_addr [3:0] $end
$var reg 1 $" exp_cout $end
$var reg 4 %" exp_val [3:0] $end
$var reg 24 &" op_name [24:1] $end
$var reg 4 '" src_val [3:0] $end
$upscope $end
$upscope $end
$enddefinitions $end
$comment Show the parameter values. $end
$dumpall
$end
#0
$dumpvars
bx '"
bx &"
bx %"
x$"
bx #"
bx ""
bx !"
b10000 ~
b0 }
b0 |
b0 {
b0 z
b0 y
b1 x
b0 w
b0 v
b0 u
b0 t
b0 s
b0 r
b0 q
b0 p
b0 o
b0 n
0m
0l
0k
0j
0i
0h
0g
0f
0e
0d
0c
0b
0a
0`
0_
0^
0]
0\
0[
0Z
0Y
0X
0W
0V
0U
0T
0S
0R
0Q
0P
0O
0N
0M
0L
0K
0J
b0 I
0H
0G
0F
b0 E
b0 D
b0 C
b0 B
b0 A
b0 @
b0 ?
b0 >
0=
0<
0;
b0 :
09
08
07
b0 6
b0 5
b0 4
b0 3
02
b0 1
b0 0
b0 /
1.
b0 -
1,
b0 +
b0 *
b0 )
b0 (
b0 '
0&
b0 %
0$
b0 #
0"
b0 !
$end
#5000
b10000 ~
1$
#10000
0$
#15000
b100 /
b100 y
b100 {
0.
b10 x
b1 w
b100 s
b101 r
b101001101110100011011110111001001100101001000000100001101101111011011100111001101110100011000010110111001110100001000000011010100100000011101000110111100100000010000010110010001100100011100100010000000110100 ""
0$"
b101 %"
b101 '"
b100 #"
b10100110101010001001111 &"
b1000101 %
b1000101 *
b1000101 o
1&
1$
#20000
0$
#25000
b101 :
1N
b101 6
b101 E
1Z
1O
1[
1K
1W
1j
b101 5
1d
b101 A
b101 D
19
1i
1c
b10 0
b10 ?
b10 v
b101 3
b101 >
b101 u
b100 /
b100 y
b100 {
0.
b11 x
b10 w
1$
#30000
0$
#35000
b1 x
b101 +
b101 z
b101 |
0,
b101 3
b101 >
b101 u
b10 0
b10 ?
b10 v
b100 /
b100 y
b100 {
0.
b11 w
b101 #
b101 (
b101 1
b101 B
b101 n
1$
#40000
0$
#45000
b0 :
0N
b0 6
b0 E
0Z
0O
0[
0j
b0 5
0d
0K
0W
0i
0c
b0 A
b0 D
09
b0 3
b0 >
b0 u
b0 0
b0 ?
b0 v
b0 +
b0 z
b0 |
b100 /
b100 y
b100 {
1,
0.
b10 x
b1 w
1$
#50000
0$
#55000
b101 :
1N
b101 6
b101 E
1Z
1O
1[
1K
1W
1j
b101 5
1d
b101 A
b101 D
19
1i
1c
b11 x
b10 0
b10 ?
b10 v
b101 3
b101 >
b101 u
b100 /
b100 y
b100 {
0.
b10 w
b0 #
b0 (
b0 1
b0 B
b0 n
b101 !
b101 )
b101 -
b101 p
b101 }
1$
#56000
b1011 :
0Z
1N
1T
b1011 6
b1011 E
1`
0[
0j
1O
1U
1F
b11 5
1g
1X
0K
1Q
1V
1J
1h
1b
1f
0c
b110 A
b110 D
b101 4
b101 @
b101 I
b101 t
b110 3
b110 >
b110 u
b10 0
b10 ?
b10 v
b100 /
b100 y
b100 {
0.
b1 q
b110 r
b10000010110010001100100001000000011011000100000011101000110111100100000010100100100000101001101010110110011010001011101001000000010100000110101001010110011011000111101001100010011000100101001 ""
b1011 %"
b110 '"
b10000010100010001000100 &"
b101000110 %
b101000110 *
b101000110 o
b101 !"
#60000
0$
#65000
b1011 +
b1011 z
b1011 |
0,
b110 3
b110 >
b110 u
b101 4
b101 @
b101 I
b101 t
b10 0
b10 ?
b10 v
b100 /
b100 y
b100 {
0.
b1 x
b1011 #
b1011 (
b1011 1
b1011 B
b1011 n
b11 w
1$
#70000
0$
#75000
0T
b0 :
0`
b0 6
b0 E
0N
0U
0g
0F
0O
b0 5
0d
0Q
0W
0X
0i
0f
b0 A
b0 D
0V
0J
0h
0b
09
b10 x
b0 3
b0 >
b0 u
b0 4
b0 @
b0 I
b0 t
b0 0
b0 ?
b0 v
b0 +
b0 z
b0 |
b100 /
b100 y
b100 {
1,
0.
b1 w
b0 !
b0 )
b0 -
b0 p
b0 }
1$
#80000
0$
#85000
1;
1<
1_
0Z
1F
1Y
b1 :
1G
1[
0`
0T
b1 6
b1 E
1N
1R
1Q
1W
1a
0U
1O
1m
1d
1j
b1101 5
0g
b110 A
b110 D
19
1\
1P
1J
1k
1e
1b
1i
1f
b10 0
b10 ?
b10 v
b1011 4
b1011 @
b1011 I
b1011 t
b110 3
b110 >
b110 u
b100 /
b100 y
b100 {
0.
b11 x
b1011 !
b1011 )
b1011 -
b1011 p
b1011 }
b0 #
b0 (
b0 1
b0 B
b0 n
b10 w
1$
#86000
b1 '
#90000
0$
#95000
b1 x
b1 +
b1 z
b1 |
0,
b110 3
b110 >
b110 u
b1011 4
b1011 @
b1011 I
b1011 t
b10 0
b10 ?
b10 v
b100 /
b100 y
b100 {
0.
b11 w
1"
12
b1 #
b1 (
b1 1
b1 B
b1 n
1$
#96000
0;
1`
0<
b1111 :
0_
1Z
b1111 6
b1111 E
1T
0F
0Y
1U
b1111 5
1g
0G
1K
1]
0R
1l
1c
b1111 A
b1111 D
0\
0P
0J
0k
0e
0b
b1111 3
b1111 >
b1111 u
b0 4
b0 @
b0 I
b0 t
b10 0
b10 ?
b10 v
b1 +
b1 z
b1 |
b1 /
b1 y
b1 {
0,
0.
b0 q
b1 s
b1111 r
b10100110111010001101111011100100110010100100000010000110110111101101110011100110111010001100001011011100111010000100000001100010011010100100000011101000110111100100000010000010110010001100100011100100010000000110001 ""
b1111 %"
b1111 '"
b1 #"
b10100110101010001001111 &"
b11111 %
b11111 *
b11111 o
b1011 !"
#100000
0$
#105000
b0 :
0N
0T
0Z
b0 6
b0 E
0`
0O
0U
0[
0a
0m
0j
0g
b0 5
0d
0K
0Q
0W
0]
0l
0i
0f
0c
b0 A
b0 D
09
b0 3
b0 >
b0 u
b0 0
b0 ?
b0 v
b0 +
b0 z
b0 |
b1 /
b1 y
b1 {
1,
0.
b10 x
b0 !
b0 )
b0 -
b0 p
b0 }
0"
02
b1111 #
b1111 (
b1111 1
b1111 B
b1111 n
b1 w
1$
#110000
0$
#115000
b1111 :
1N
1T
1Z
b1111 6
b1111 E
1`
1O
1U
1[
1a
1K
1Q
1W
1]
1m
1j
1g
b1111 5
1d
b1111 A
b1111 D
19
1l
1i
1f
1c
b11 x
b10 0
b10 ?
b10 v
b1111 3
b1111 >
b1111 u
b1 /
b1 y
b1 {
0.
b10 w
b0 #
b0 (
b0 1
b0 B
b0 n
b1 !
b1 )
b1 -
b1 p
b1 }
1$
#120000
0$
#125000
b1111 +
b1111 z
b1111 |
0,
b1111 3
b1111 >
b1111 u
b10 0
b10 ?
b10 v
b1 /
b1 y
b1 {
0.
b1 x
b1111 #
b1111 (
b1111 1
b1111 B
b1111 n
b11 w
1$
#130000
0$
#135000
b0 :
0N
0T
0Z
b0 6
b0 E
0`
0O
0U
0[
0a
0m
0j
0g
b0 5
0d
0K
0Q
0W
0]
0l
0i
0f
0c
b0 A
b0 D
09
b10 x
b0 3
b0 >
b0 u
b0 0
b0 ?
b0 v
b0 +
b0 z
b0 |
b1 /
b1 y
b1 {
1,
0.
b1 w
b0 !
b0 )
b0 -
b0 p
b0 }
1$
#136000
b1 /
b1 y
b1 {
0.
b10 q
b111 r
b101001101110101011000100010000000110111001000000110011001110010011011110110110100100000010100100100000101001101010110110011000101011101001000000010100000110001001101010010110100110111001111010011100000101001 ""
1$"
b1000 %"
b111 '"
b10100110101010101000010 &"
b1000010111 %
b1000010111 *
b1000010111 o
b1111 !"
#140000
0$
#145000
1F
1Y
1G
1;
1S
1<
1`
0Z
0T
1H
b1000 :
1^
1M
b1000 6
b1000 E
0N
1]
0a
1[
1U
1O
1m
0j
0g
b1000 5
0d
b1000 A
b1000 D
1=
18
1\
1V
1P
1J
1k
1h
1e
1b
1i
1f
1c
b101 0
b101 ?
b101 v
b1111 4
b1111 @
b1111 I
b1111 t
b111 3
b111 >
b111 u
b1 /
b1 y
b1 {
0.
b11 x
b1111 !
b1111 )
b1111 -
b1111 p
b1111 }
b0 #
b0 (
b0 1
b0 B
b0 n
b10 w
1$
#150000
0$
#155000
b1 x
b1000 +
b1000 z
b1000 |
0,
b111 3
b111 >
b111 u
b1111 4
b1111 @
b1111 I
b1111 t
b101 0
b101 ?
b101 v
b1 /
b1 y
b1 {
0.
b11 w
1"
12
b1000 #
b1000 (
b1000 1
b1000 B
b1000 n
1$
#160000
0$
#165000
0`
0F
0G
b0 :
0;
0Y
0S
b0 6
b0 E
0N
0<
0[
0U
0O
b0 5
0m
0H
0]
0^
0M
0i
0f
0c
b0 A
b0 D
0\
0V
0P
0J
0k
0h
0e
0b
0=
08
b0 3
b0 >
b0 u
b0 4
b0 @
b0 I
b0 t
b0 0
b0 ?
b0 v
b0 +
b0 z
b0 |
b1 /
b1 y
b1 {
1,
0.
b10 x
b0 !
b0 )
b0 -
b0 p
b0 }
b1 w
1$
#170000
0$
#175000
1;
1<
0`
b1 :
1^
b1 6
b1 E
1N
1]
0a
1m
1j
1g
b1111 5
1d
b1000 A
b1000 D
1=
18
1\
1k
1i
1f
1c
b11 x
b101 0
b101 ?
b101 v
b1000 4
b1000 @
b1000 I
b1000 t
b111 3
b111 >
b111 u
b1 /
b1 y
b1 {
0.
b10 w
0"
02
b0 #
b0 (
b0 1
b0 B
b0 n
b1000 !
b1000 )
b1000 -
b1000 p
b1000 }
1$
#176000
x`
xF
xY
xG
xS
xH
xT
xZ
xM
1O
1U
1[
0;
b111 :
0j
0g
b1000 5
0d
bx 6
bx E
xN
1K
1Q
1W
19
17
0i
0f
0c
b1111 A
b1111 D
z=
b111 C
b0 3
b0 >
b0 u
b1000 4
b1000 @
b1000 I
b1000 t
b111z 0
b111z ?
b111z v
b1111 /
b1111 y
b1111 {
0.
b110 q
b1111 s
b0 r
b1001001011011100111011001100101011100100111010000100000010100100100000101001101010110110011000100110101010111010010000000101000011111100011000000111101001100010011010100101001 ""
0$"
b1111 %"
b0 '"
b1111 #"
b10011100100111101010100 &"
b11011110000 %
b11011110000 *
b11011110000 o
b1000 !"
#180000
0$
#185000
x_
1a
x<
b0 5
0m
0^
b1111 :
0\
0k
b1111 C
b111 +
b111 z
b111 |
0,
b0 4
b0 @
b0 I
b0 t
b111z 0
b111z ?
b111z v
b1111 /
b1111 y
b1111 {
0.
b1 x
b0 !
b0 )
b0 -
b0 p
b0 }
b111 #
b111 (
b111 1
b111 B
b111 n
b11 w
1$
#190000
0$
#195000
0`
0Z
0F
0<
0T
0Y
0_
0G
0O
0U
0[
0a
0S
b0 6
b0 E
0N
0H
0K
0Q
0W
0]
0;
0M
b0 A
b0 D
b0 :
0=
09
08
07
b0 C
b10 x
b0 0
b0 ?
b0 v
b0 +
b0 z
b0 |
b1111 /
b1111 y
b1111 {
1,
0.
b1 w
b1111 #
b1111 (
b1111 1
b1111 B
b1111 n
1$
#200000
0$
#205000
0`
1<
1_
0S
1G
1F
1a
1Z
1T
1H
1L
1R
1X
0M
b11x 6
b11x E
xN
1K
1Q
1W
1]
b1000 :
0[
0U
0O
1j
1g
b111 5
1d
b1111 A
b1111 D
z=
19
18
17
1V
1P
1J
1h
1e
1b
b1000 C
b111z 0
b111z ?
b111z v
b111 4
b111 @
b111 I
b111 t
b1111 /
b1111 y
b1111 {
0.
b11 x
b111 !
b111 )
b111 -
b111 p
b111 }
b0 #
b0 (
b0 1
b0 B
b0 n
b10 w
1$
#206000
b10 '
#210000
0$
#215000
b1 x
b1000 +
b1000 z
b1000 |
0,
b111 4
b111 @
b111 I
b111 t
b111z 0
b111z ?
b111z v
b1111 /
b1111 y
b1111 {
0.
b11 w
b1000 #
b1000 (
b1000 1
b1000 B
b1000 n
1$
#216000
b11 '
b111 !"
